{
    "results": {
        "category": [
            {
                "left" : "2015",
                "right": "Early Bird Price From \n3 October 2014",
                "category": [
                    {
                        "additional_field": "(GROUP BOOKING SPECIAL)",
                        "id": 1,
                        "more": "View more details and full pricing",
                        "name": "3-DAY GRANDSTANDS",
                        "options": [
                            {
                                "id": 1,
                                "name": "PIT GRANDSTAND"
                            },
                            {
                                "id": 8,
                                "name": "CONNAUGHT GRANDSTAND"
                            },
                            {
                                "id": 7,
                                "name": "STAMFORD GRANDSTAND"
                            },
                            {
                                "id": 2,
                                "name": "ESPLANADE WATERFRONT GRANDSTAND"
                            },
                            {
                                "id": 3,
                                "name": "PADANG GRANDSTAND"
                            },
                            {
                                "id": 4,
                                "name": "BAY GRANDSTAND"
                            }
                        ],
                        "special": false,
                        "type": "3-Day Ticket"
                    },
                    {
                        "additional_field": "",
                        "id": 2,
                        "more": "View more details and full pricing",
                        "name": "3-DAY GRANDSTANDS",
                        "options": [
                            {
                                "id": 5,
                                "name": "TURN 1 GRANDSTAND"
                            },
                            {
                                "id": 6,
                                "name": "TURN 2 GRANDSTAND"
                            }
                        ],
                        "special": false,
                        "type": "3-Day Ticket"
                    },
                    {
                        "additional_field": "",
                        "id": 5,
                        "more": "View more details and full pricing",
                        "name": "SUNDAY ZONE 1 SPECIAL",
                        "options": [
                            {
                                "id": 15,
                                "name": "SUNDAY PIT GRANDSTAND "
                            }
                        ],
                        "special": false,
                        "type": "3-Day Ticket"
                    },
                    {
                        "additional_field": "",
                        "id": 3,
                        "more": "View more details and full pricing",
                        "name": "3-DAY WALKABOUTS",
                        "options": [
                            {
                                "id": 9,
                                "name": "PREMIER WALKABOUT"
                            },
                            {
                                "id": 10,
                                "name": "ZONE 4 WALKABOUT"
                            }
                        ],
                        "special": false,
                        "type": "3-Day Ticket"
                    },
                    {
                        "additional_field": "",
                        "id": 4,
                        "more": "View more details and full pricing",
                        "name": "3-DAY COMBINATION PACKAGES",
                        "options": [
                            {
                                "id": 39,
                                "name": "PIT COMBINATION"
                            },
                            {
                                "id": 33,
                                "name": "ZONE 1 WALKABOUT COMBINATION"
                            },
                            {
                                "id": 40,
                                "name": "PADANG COMBINATION"
                            },
                            {
                                "id": 41,
                                "name": "BAY COMBINATION"
                            }
                        ],
                        "special": false,
                        "type": "3-Day Combination Ticket"
                    },
                    {
                        "additional_field": "",
                        "id": 6,
                        "more": "View more details and full pricing",
                        "name": "HOSPITALITY AND EXECUTIVE PACKAGES",
                        "options": [
                            {
                                "id": 17,
                                "name": "TURN 3 PREMIER GRANDSTAND"
                            }
                        ],
                        "special": false,
                        "type": "3-Day Ticket"
                    },
                    {
                        "additional_field": "",
                        "id": 7,
                        "more": "View more details and full pricing",
                        "name": "WHEELCHAIR ACCESSIBLE PLATFORMS",
                        "options": [
                            {
                                "id": 18,
                                "name": "MARINA PIT @ ZONE 1"
                            },
                            {
                                "id": 19,
                                "name": "EMPRESS PLACE - SEASON PASS"
                            }
                        ],
                        "special": false,
                        "type": "3-Day Ticket"
                    },
                    {
                        "additional_field": "",
                        "id": 10,
                        "more": "View more details and full pricing",
                        "name": "SINGLE-DAY WHEELCHAIR ACCESSIBLE PLATFORMS",
                        "options": [
                            {
                                "id": 22,
                                "name": "EMPRESS PLACE"
                            }
                        ],
                        "special": false,
                        "type": "Single Day Ticket"
                    }
                ]
            }
        ],
        "highlight": [
        ]
    },
    "success": true,
    "time": "0.0357"
}